131.0
0 1 4,000000 true edge0 
1 3 4,000000 false edge30 
3 1 3,000000 false edge3 
1 4 4,000000 true edge4 
4 2 2,000000 false edge5 
2 0 3,000000 true edge32 
0 4 4,000000 true edge33 
4 2 2,000000 false edge5 
2 1 3,000000 false edge9 
1 5 4,000000 false edge17 
5 4 3,000000 true edge13 
4 2 2,000000 false edge5 
2 1 3,000000 true edge8 
1 6 4,000000 false edge18 
6 4 3,000000 false edge21 
4 2 2,000000 false edge5 
2 1 4,000000 false edge1 
1 2 1,000000 false edge31 
2 3 2,000000 false edge7 
3 4 3,000000 true edge25 
4 2 2,000000 false edge5 
2 3 4,000000 false edge6 
3 5 4,000000 true edge12 
5 4 3,000000 true edge13 
4 2 2,000000 false edge5 
2 3 4,000000 false edge2 
3 5 4,000000 false edge11 
5 2 1,000000 false edge10 
2 5 4,000000 true edge16 
5 4 3,000000 true edge13 
4 6 1,000000 true edge26 
6 2 4,000000 false edge19 
2 6 4,000000 false edge19 
6 0 4,000000 true edge22 
0 2 1,000000 true edge15 
2 4 1,000000 true edge20 
4 3 4,000000 true edge29 
3 7 3,000000 false edge24 
7 4 2,000000 false edge34 
4 6 1,000000 true edge26 
6 8 1,000000 false edge27 
8 4 1,000000 false edge28 
4 0 4,000000 false edge14 
0 7 4,000000 true edge23 
7 9 4,000000 false edge35 
9 0 1,000000 false edge36 
